Project 2
…
# Dropoff
taxi <- taxi %>%
  left_join(Borough_Zone %>% select(LocationID, Borough, Zone),
            by = c("DOLocationID" = "LocationID")) %>%
  mutate(dropoff_location = paste(Borough, Zone, sep = " - ")) %>%
  select(-Borough, -Zone)

#Checking Airport_fee > 0 when the pickup location Queens - LaGuardia Airport and Queens - JFK Airport
taxi %>% filter(!is.na(Airport_fee) & Airport_fee > 0) %>% distinct(pickup_location)

## # A tibble: 82 × 1
##    pickup_location                      
##    <chr>                                
##  1 Queens - JFK Airport                 
##  2 Queens - LaGuardia Airport           
##  3 Queens - East Elmhurst               
##  4 Unknown - N/A                        
##  5 Queens - Baisley Park                
##  6 Queens - Jackson Heights             
##  7 Manhattan - Times Sq/Theatre District
##  8 Manhattan - Midtown South            
##  9 Manhattan - Midtown East             
## 10 Queens - Flushing Meadows-Corona Park
## # ℹ 72 more rows
…
taxi %>% filter(trip_duration_mins <= 0) %>% arrange(trip_duration_mins)

## # A tibble: 23,621 × 44
##    VendorID tpep_pickup_datetime tpep_dropoff_datetime passenger_count
##       <int> <dttm>               <dttm>                          <dbl>
##  1        2 2025-11-01 20:58:59  2025-11-01 20:02:32                 1
##  2        2 2025-11-01 20:59:17  2025-11-01 20:03:51                 1
##  3        2 2025-11-01 20:56:27  2025-11-01 20:01:38                 1
##  4        2 2025-11-01 20:56:42  2025-11-01 20:02:01                 1
##  5        1 2025-11-01 20:55:10  2025-11-01 20:02:34                 1
##  6        2 2025-11-01 20:58:42  2025-11-01 20:06:15                 2
##  7        2 2025-11-01 20:53:57  2025-11-01 20:01:57                 1
##  8        1 2025-11-01 20:54:35  2025-11-01 20:03:30                 1
##  9        2 2025-11-01 20:53:52  2025-11-01 20:04:06                 1
## 10        2 2025-11-01 20:58:14  2025-11-01 20:08:36                 2
## # ℹ 23,611 more rows
## # ℹ 40 more variables: trip_distance <dbl>, RatecodeID <int>,
## #   store_and_fwd_flag <chr>, PULocationID <int>, DOLocationID <int>,
## #   payment_type <int>, fare_amount <dbl>, extra <dbl>, mta_tax <dbl>,
## #   tip_amount <dbl>, tolls_amount <dbl>, improvement_surcharge <dbl>,
## #   total_amount <dbl>, congestion_surcharge <dbl>, Airport_fee <dbl>,
## #   cbd_congestion_fee <dbl>, month <fct>, Vendor_name <chr>, …

taxi %>% filter(trip_duration_mins > 300)%>% arrange(trip_duration_mins)

## # A tibble: 606 × 44
##    VendorID tpep_pickup_datetime tpep_dropoff_datetime passenger_count
##       <int> <dttm>               <dttm>                          <dbl>
##  1        1 2025-12-15 12:27:17  2025-12-15 17:29:18                 1
##  2        2 2025-01-07 06:53:07  2025-01-07 11:55:10                 1
##  3        1 2025-09-16 11:45:00  2025-09-16 16:49:08                 1
##  4        2 2025-10-26 13:55:33  2025-10-26 19:00:00                 1
##  5        1 2025-12-02 11:00:00  2025-12-02 16:04:40                 1
##  6        1 2025-09-09 11:59:00  2025-09-09 17:04:06                 1
##  7        1 2025-12-04 11:13:07  2025-12-04 16:18:49                 1
##  8        1 2025-11-05 11:41:28  2025-11-05 16:48:47                 1
##  9        1 2025-09-22 12:30:00  2025-09-22 17:37:43                 1
## 10        1 2025-09-26 11:41:14  2025-09-26 16:56:46                 1
## # ℹ 596 more rows
## # ℹ 40 more variables: trip_distance <dbl>, RatecodeID <int>,
## #   store_and_fwd_flag <chr>, PULocationID <int>, DOLocationID <int>,
## #   payment_type <int>, fare_amount <dbl>, extra <dbl>, mta_tax <dbl>,
## #   tip_amount <dbl>, tolls_amount <dbl>, improvement_surcharge <dbl>,
## #   total_amount <dbl>, congestion_surcharge <dbl>, Airport_fee <dbl>,
## #   cbd_congestion_fee <dbl>, month <fct>, Vendor_name <chr>, …
…
